%YAML 1.1
%TAG !u! tag:unity3d.com,2011:
--- !u!1 &4115476135907606149
GameObject:
  m_ObjectHideFlags: 0
  m_CorrespondingSourceObject: {fileID: 0}
  m_PrefabInstance: {fileID: 0}
  m_PrefabAsset: {fileID: 0}
  serializedVersion: 6
  m_Component:
  - component: {fileID: 6349151928875962174}
  - component: {fileID: 2931604500597588581}
  m_Layer: 8
  m_Name: Boid 1
  m_TagString: Untagged
  m_Icon: {fileID: 0}
  m_NavMeshLayer: 0
  m_StaticEditorFlags: 0
  m_IsActive: 1
--- !u!4 &6349151928875962174
Transform:
  m_ObjectHideFlags: 0
  m_CorrespondingSourceObject: {fileID: 0}
  m_PrefabInstance: {fileID: 0}
  m_PrefabAsset: {fileID: 0}
  m_GameObject: {fileID: 4115476135907606149}
  m_LocalRotation: {x: 0, y: 0, z: 0, w: 1}
  m_LocalPosition: {x: -6.19306, y: 5.817222, z: -10.448}
  m_LocalScale: {x: 0.8, y: 0.8, z: 0.8}
  m_Children:
  - {fileID: 5684684077855153855}
  m_Father: {fileID: 0}
  m_RootOrder: 0
  m_LocalEulerAnglesHint: {x: 0, y: 0, z: 0}
--- !u!114 &2931604500597588581
MonoBehaviour:
  m_ObjectHideFlags: 0
  m_CorrespondingSourceObject: {fileID: 0}
  m_PrefabInstance: {fileID: 0}
  m_PrefabAsset: {fileID: 0}
  m_GameObject: {fileID: 4115476135907606149}
  m_Enabled: 1
  m_EditorHideFlags: 0
  m_Script: {fileID: 11500000, guid: c53657e503d7a4738b0a9fa634fc1b92, type: 3}
  m_Name: 
  m_EditorClassIdentifier: 
  position: {x: 0, y: 0, z: 0}
  forward: {x: 0, y: 0, z: 0}
  avgFlockHeading: {x: 0, y: 0, z: 0}
  avgAvoidanceHeading: {x: 0, y: 0, z: 0}
  centreOfFlockmates: {x: 0, y: 0, z: 0}
  numPerceivedFlockmates: 0
--- !u!1001 &7969832100851024027
PrefabInstance:
  m_ObjectHideFlags: 0
  serializedVersion: 2
  m_Modification:
    m_TransformParent: {fileID: 6349151928875962174}
    m_Modifications:
    - target: {fileID: 526573063685383413, guid: 1392f21ae6c2c5041922734fb99c4259,
        type: 3}
      propertyPath: m_Materials.Array.data[0]
      value: 
      objectReference: {fileID: 2100000, guid: cfeaafce77ba7f64380a430b701bbb37, type: 2}
    - target: {fileID: 544430509639612297, guid: 1392f21ae6c2c5041922734fb99c4259,
        type: 3}
      propertyPath: m_Materials.Array.data[0]
      value: 
      objectReference: {fileID: 2100000, guid: cfeaafce77ba7f64380a430b701bbb37, type: 2}
    - target: {fileID: 943151618296639220, guid: 1392f21ae6c2c5041922734fb99c4259,
        type: 3}
      propertyPath: m_Materials.Array.data[0]
      value: 
      objectReference: {fileID: 2100000, guid: ee52bb0bbda6e4eb8a7251c7fd884b54, type: 2}
    - target: {fileID: 1414584880906761390, guid: 1392f21ae6c2c5041922734fb99c4259,
        type: 3}
      propertyPath: m_Materials.Array.data[0]
      value: 
      objectReference: {fileID: 2100000, guid: cfeaafce77ba7f64380a430b701bbb37, type: 2}
    - target: {fileID: 1519323708663099778, guid: 1392f21ae6c2c5041922734fb99c4259,
        type: 3}
      propertyPath: m_Materials.Array.size
      value: 1
      objectReference: {fileID: 0}
    - target: {fileID: 1519323708663099778, guid: 1392f21ae6c2c5041922734fb99c4259,
        type: 3}
      propertyPath: m_Materials.Array.data[0]
      value: 
      objectReference: {fileID: 2100000, guid: cfeaafce77ba7f64380a430b701bbb37, type: 2}
    - target: {fileID: 2341456315565153828, guid: 1392f21ae6c2c5041922734fb99c4259,
        type: 3}
      propertyPath: m_RootOrder
      value: 0
      objectReference: {fileID: 0}
    - target: {fileID: 2341456315565153828, guid: 1392f21ae6c2c5041922734fb99c4259,
        type: 3}
      propertyPath: m_LocalPosition.x
      value: 0
      objectReference: {fileID: 0}
    - target: {fileID: 2341456315565153828, guid: 1392f21ae6c2c5041922734fb99c4259,
        type: 3}
      propertyPath: m_LocalPosition.y
      value: 0
      objectReference: {fileID: 0}
    - target: {fileID: 2341456315565153828, guid: 1392f21ae6c2c5041922734fb99c4259,
        type: 3}
      propertyPath: m_LocalPosition.z
      value: 0
      objectReference: {fileID: 0}
    - target: {fileID: 2341456315565153828, guid: 1392f21ae6c2c5041922734fb99c4259,
        type: 3}
      propertyPath: m_LocalRotation.w
      value: 0.7071068
      objectReference: {fileID: 0}
    - target: {fileID: 2341456315565153828, guid: 1392f21ae6c2c5041922734fb99c4259,
        type: 3}
      propertyPath: m_LocalRotation.x
      value: 0.7071068
      objectReference: {fileID: 0}
    - target: {fileID: 2341456315565153828, guid: 1392f21ae6c2c5041922734fb99c4259,
        type: 3}
      propertyPath: m_LocalRotation.y
      value: 0
      objectReference: {fileID: 0}
    - target: {fileID: 2341456315565153828, guid: 1392f21ae6c2c5041922734fb99c4259,
        type: 3}
      propertyPath: m_LocalRotation.z
      value: 0
      objectReference: {fileID: 0}
    - target: {fileID: 2341456315565153828, guid: 1392f21ae6c2c5041922734fb99c4259,
        type: 3}
      propertyPath: m_LocalEulerAnglesHint.x
      value: 90
      objectReference: {fileID: 0}
    - target: {fileID: 2341456315565153828, guid: 1392f21ae6c2c5041922734fb99c4259,
        type: 3}
      propertyPath: m_LocalEulerAnglesHint.y
      value: 0
      objectReference: {fileID: 0}
    - target: {fileID: 2341456315565153828, guid: 1392f21ae6c2c5041922734fb99c4259,
        type: 3}
      propertyPath: m_LocalEulerAnglesHint.z
      value: 0
      objectReference: {fileID: 0}
    - target: {fileID: 3113490038037103774, guid: 1392f21ae6c2c5041922734fb99c4259,
        type: 3}
      propertyPath: m_Name
      value: Viral thing3
      objectReference: {fileID: 0}
    - target: {fileID: 5484120974350259467, guid: 1392f21ae6c2c5041922734fb99c4259,
        type: 3}
      propertyPath: m_Materials.Array.data[0]
      value: 
      objectReference: {fileID: 2100000, guid: cfeaafce77ba7f64380a430b701bbb37, type: 2}
    - target: {fileID: 6474769468669431280, guid: 1392f21ae6c2c5041922734fb99c4259,
        type: 3}
      propertyPath: m_Materials.Array.data[0]
      value: 
      objectReference: {fileID: 2100000, guid: cfeaafce77ba7f64380a430b701bbb37, type: 2}
    - target: {fileID: 8749014863857119230, guid: 1392f21ae6c2c5041922734fb99c4259,
        type: 3}
      propertyPath: m_Materials.Array.data[0]
      value: 
      objectReference: {fileID: 2100000, guid: cfeaafce77ba7f64380a430b701bbb37, type: 2}
    m_RemovedComponents: []
  m_SourcePrefab: {fileID: 100100000, guid: 1392f21ae6c2c5041922734fb99c4259, type: 3}
--- !u!4 &5684684077855153855 stripped
Transform:
  m_CorrespondingSourceObject: {fileID: 2341456315565153828, guid: 1392f21ae6c2c5041922734fb99c4259,
    type: 3}
  m_PrefabInstance: {fileID: 7969832100851024027}
  m_PrefabAsset: {fileID: 0}
