mtllib tube.mtl
g Part 2
usemtl 0.792157_0.819608_0.933333_0.000000_0.000000
o mesh0
v 0 0 0.0343014 
v 0.000540595 -0.00497069 0.0343014 
v 0.00159651 -0.00473827 0.0343014 
v 0.00257777 -0.00428429 0.0343014 
v 0.0034385 -0.00362998 0.0343014 
v 0.00413844 -0.00280594 0.0343014 
v 0.00464488 -0.00185069 0.0343014 
v 0.00493413 -0.00080891 0.0343014 
v 0.00499267 0.000270695 0.0343014 
v 0.00481775 0.00133764 0.0343014 
v 0.00441756 0.00234204 0.0343014 
v 0.00381081 0.00323693 0.0343014 
v 0.00302587 0.00398047 0.0343014 
v 0.00209945 0.00453788 0.0343014 
v 0.00107485 0.0048831 0.0343014 
v 0 0.005 0.0343014 
v -0.00107485 0.0048831 0.0343014 
v -0.00209945 0.00453788 0.0343014 
v -0.00302587 0.00398047 0.0343014 
v -0.00381081 0.00323693 0.0343014 
v -0.00441756 0.00234204 0.0343014 
v -0.00481775 0.00133764 0.0343014 
v -0.00499267 0.000270695 0.0343014 
v -0.00493413 -0.00080891 0.0343014 
v -0.00464488 -0.00185069 0.0343014 
v -0.00413844 -0.00280594 0.0343014 
v -0.0034385 -0.00362998 0.0343014 
v -0.00257777 -0.00428429 0.0343014 
v -0.00159651 -0.00473827 0.0343014 
v -0.000540595 -0.00497069 0.0343014 
v 1.83697e-18 -0.005 0.0343014 
vn 0 0 1 
vn 0 0 1 
vn 0 0 1 
vn 0 0 1 
vn 0 0 1 
vn 0 0 1 
vn 0 0 1 
vn 0 0 1 
vn 0 0 1 
vn 0 0 1 
vn 0 0 1 
vn 0 0 1 
vn 0 0 1 
vn 0 0 1 
vn 0 0 1 
vn 0 0 1 
vn 0 0 1 
vn 0 0 1 
vn 0 0 1 
vn 0 0 1 
vn 0 0 1 
vn 0 0 1 
vn 0 0 1 
vn 0 0 1 
vn 0 0 1 
vn 0 0 1 
vn 0 0 1 
vn 0 0 1 
vn 0 0 1 
vn 0 0 1 
vn 0 0 1 
f 1//1 2//2 3//3 
f 3//3 4//4 1//1 
f 4//4 5//5 1//1 
f 5//5 6//6 1//1 
f 6//6 7//7 1//1 
f 7//7 8//8 1//1 
f 8//8 9//9 1//1 
f 9//9 10//10 1//1 
f 10//10 11//11 1//1 
f 11//11 12//12 1//1 
f 12//12 13//13 1//1 
f 13//13 14//14 1//1 
f 14//14 15//15 1//1 
f 15//15 16//16 1//1 
f 16//16 17//17 1//1 
f 17//17 18//18 1//1 
f 18//18 19//19 1//1 
f 19//19 20//20 1//1 
f 20//20 21//21 1//1 
f 21//21 22//22 1//1 
f 22//22 23//23 1//1 
f 23//23 24//24 1//1 
f 24//24 25//25 1//1 
f 25//25 26//26 1//1 
f 26//26 27//27 1//1 
f 27//27 28//28 1//1 
f 28//28 29//29 1//1 
f 29//29 30//30 1//1 
f 30//30 31//31 1//1 
f 31//31 2//2 1//1 
o mesh1
v 0 0.005 0 
v 0 0.005 0.0343014 
v 0.00107485 0.0048831 0.0343014 
v 0.00107485 0.0048831 0 
v 0.00209945 0.00453788 0.0343014 
v 0.00209945 0.00453788 0 
v 0.00302587 0.00398047 0.0343014 
v 0.00302587 0.00398047 0 
v 0.00381081 0.00323693 0.0343014 
v 0.00381081 0.00323693 0 
v 0.00441756 0.00234204 0.0343014 
v 0.00441756 0.00234204 0 
v 0.00481775 0.00133764 0.0343014 
v 0.00481775 0.00133764 0 
v 0.00499267 0.000270695 0.0343014 
v 0.00499267 0.000270695 0 
v 0.00493413 -0.00080891 0.0343014 
v 0.00493413 -0.00080891 0 
v 0.00464488 -0.00185069 0.0343014 
v 0.00464488 -0.00185069 0 
v 0.00413844 -0.00280594 0.0343014 
v 0.00413844 -0.00280594 0 
v 0.0034385 -0.00362998 0.0343014 
v 0.0034385 -0.00362998 0 
v 0.00257777 -0.00428429 0.0343014 
v 0.00257777 -0.00428429 0 
v 0.00159651 -0.00473827 0.0343014 
v 0.00159651 -0.00473827 0 
v 0.000540595 -0.00497069 0.0343014 
v -0.000540595 -0.00497069 0 
v 6.12323e-19 -0.005 0 
v 1.83697e-18 -0.005 0.0343014 
v 0.000540595 -0.00497069 0 
v -0.000540595 -0.00497069 0.0343014 
v -0.00159651 -0.00473827 0.0343014 
v -0.00159651 -0.00473827 0 
v -0.00257777 -0.00428429 0.0343014 
v -0.00257777 -0.00428429 0 
v -0.0034385 -0.00362998 0.0343014 
v -0.0034385 -0.00362998 0 
v -0.00413844 -0.00280594 0.0343014 
v -0.00413844 -0.00280594 0 
v -0.00464488 -0.00185069 0.0343014 
v -0.00464488 -0.00185069 0 
v -0.00493413 -0.00080891 0.0343014 
v -0.00493413 -0.00080891 0 
v -0.00499267 0.000270695 0.0343014 
v -0.00499267 0.000270695 0 
v -0.00481775 0.00133764 0.0343014 
v -0.00481775 0.00133764 0 
v -0.00441756 0.00234204 0.0343014 
v -0.00441756 0.00234204 0 
v -0.00381081 0.00323693 0.0343014 
v -0.00381081 0.00323693 0 
v -0.00302587 0.00398047 0.0343014 
v -0.00302587 0.00398047 0 
v -0.00209945 0.00453788 0.0343014 
v -0.00209945 0.00453788 0 
v -0.00107485 0.0048831 0.0343014 
v -0.00107485 0.0048831 0 
vn 0 1 0 
vn 0 1 0 
vn 0.21497 0.976621 0 
vn 0.21497 0.976621 0 
vn 0.419889 0.907575 0 
vn 0.419889 0.907575 0 
vn 0.605174 0.796093 0 
vn 0.605174 0.796093 0 
vn 0.762162 0.647386 0 
vn 0.762162 0.647386 0 
vn 0.883512 0.468408 0 
vn 0.883512 0.468408 0 
vn 0.96355 0.267528 0 
vn 0.96355 0.267528 0 
vn 0.998533 0.0541389 0 
vn 0.998533 0.0541389 0 
vn 0.986827 -0.161782 0 
vn 0.986827 -0.161782 0 
vn 0.928977 -0.370138 0 
vn 0.928977 -0.370138 0 
vn 0.827689 -0.561187 0 
vn 0.827689 -0.561187 0 
vn 0.687699 -0.725995 0 
vn 0.687699 -0.725995 0 
vn 0.515554 -0.856857 0 
vn 0.515554 -0.856857 0 
vn 0.319302 -0.947653 0 
vn 0.319302 -0.947653 0 
vn 0.108119 -0.994138 0 
vn -0.108119 -0.994138 -0 
vn 1.22465e-16 -1 0 
vn 1.22465e-16 -1 0 
vn 0.108119 -0.994138 0 
vn -0.108119 -0.994138 -0 
vn -0.319302 -0.947653 -0 
vn -0.319302 -0.947653 -0 
vn -0.515554 -0.856857 -0 
vn -0.515554 -0.856857 -0 
vn -0.687699 -0.725995 -0 
vn -0.687699 -0.725995 -0 
vn -0.827689 -0.561187 -0 
vn -0.827689 -0.561187 -0 
vn -0.928977 -0.370138 -0 
vn -0.928977 -0.370138 -0 
vn -0.986827 -0.161782 -0 
vn -0.986827 -0.161782 -0 
vn -0.998533 0.0541389 0 
vn -0.998533 0.0541389 0 
vn -0.96355 0.267528 0 
vn -0.96355 0.267528 0 
vn -0.883512 0.468408 0 
vn -0.883512 0.468408 0 
vn -0.762162 0.647386 0 
vn -0.762162 0.647386 0 
vn -0.605174 0.796093 0 
vn -0.605174 0.796093 0 
vn -0.419889 0.907575 0 
vn -0.419889 0.907575 0 
vn -0.21497 0.976621 0 
vn -0.21497 0.976621 0 
f 32//32 33//33 34//34 
f 35//35 34//34 36//36 
f 37//37 36//36 38//38 
f 39//39 38//38 40//40 
f 41//41 40//40 42//42 
f 43//43 42//42 44//44 
f 45//45 44//44 46//46 
f 47//47 46//46 48//48 
f 49//49 48//48 50//50 
f 51//51 50//50 52//52 
f 53//53 52//52 54//54 
f 55//55 54//54 56//56 
f 57//57 56//56 58//58 
f 59//59 58//58 60//60 
f 61//61 62//62 63//63 
f 60//60 63//63 62//62 
f 62//62 64//64 60//60 
f 61//61 65//65 66//66 
f 67//67 66//66 68//68 
f 69//69 68//68 70//70 
f 71//71 70//70 72//72 
f 73//73 72//72 74//74 
f 75//75 74//74 76//76 
f 77//77 76//76 78//78 
f 79//79 78//78 80//80 
f 81//81 80//80 82//82 
f 83//83 82//82 84//84 
f 85//85 84//84 86//86 
f 87//87 86//86 88//88 
f 89//89 88//88 90//90 
f 91//91 90//90 33//33 
f 33//33 32//32 91//91 
f 90//90 91//91 89//89 
f 88//88 89//89 87//87 
f 86//86 87//87 85//85 
f 84//84 85//85 83//83 
f 82//82 83//83 81//81 
f 80//80 81//81 79//79 
f 78//78 79//79 77//77 
f 76//76 77//77 75//75 
f 74//74 75//75 73//73 
f 72//72 73//73 71//71 
f 70//70 71//71 69//69 
f 68//68 69//69 67//67 
f 66//66 67//67 61//61 
f 63//63 65//65 61//61 
f 60//60 64//64 59//59 
f 58//58 59//59 57//57 
f 56//56 57//57 55//55 
f 54//54 55//55 53//53 
f 52//52 53//53 51//51 
f 50//50 51//51 49//49 
f 48//48 49//49 47//47 
f 46//46 47//47 45//45 
f 44//44 45//45 43//43 
f 42//42 43//43 41//41 
f 40//40 41//41 39//39 
f 38//38 39//39 37//37 
f 36//36 37//37 35//35 
f 34//34 35//35 32//32 
o mesh2
v 6.12323e-19 -0.005 0 
v 1.65327e-18 -0.0045 0 
v 0.000486536 -0.00447362 0 
v -0.000540595 -0.00497069 0 
v -0.000486536 -0.00447362 0 
v 0.00159651 -0.00473827 0 
v 0.000540595 -0.00497069 0 
v -0.00481775 0.00133764 0 
v -0.00433597 0.00120388 0 
v -0.0044934 0.000243625 0 
v -0.00441756 0.00234204 0 
v -0.0039758 0.00210784 0 
v 0.00441756 0.00234204 0 
v 0.0039758 0.00210784 0 
v 0.00342973 0.00291324 0 
v 0.00481775 0.00133764 0 
v 0.00433597 0.00120388 0 
v 0.00257777 -0.00428429 0 
v 0.00231999 -0.00385586 0 
v 0.00309465 -0.00326698 0 
v 0.00143686 -0.00426444 0 
v -0.00159651 -0.00473827 0 
v -0.00143686 -0.00426444 0 
v -0.00381081 0.00323693 0 
v -0.00342973 0.00291324 0 
v -0.00302587 0.00398047 0 
v -0.00272328 0.00358242 0 
v -0.00209945 0.00453788 0 
v -0.0018895 0.00408409 0 
v 0.00381081 0.00323693 0 
v 0.00272328 0.00358242 0 
v 0.00499267 0.000270695 0 
v 0.0044934 0.000243625 0 
v 0.00493413 -0.00080891 0 
v 0.00444072 -0.000728019 0 
v -0.00257777 -0.00428429 0 
v -0.00231999 -0.00385586 0 
v -0.0034385 -0.00362998 0 
v -0.00309465 -0.00326698 0 
v -0.00107485 0.0048831 0 
v -0.000967367 0.00439479 0 
v 0 0.005 0 
v 0 0.0045 0 
v 0.00209945 0.00453788 0 
v 0.0018895 0.00408409 0 
v 0.000967367 0.00439479 0 
v 0.00302587 0.00398047 0 
v -0.00413844 -0.00280594 0 
v -0.0037246 -0.00252534 0 
v -0.00464488 -0.00185069 0 
v -0.0041804 -0.00166562 0 
v 0.00107485 0.0048831 0 
v 0.00464488 -0.00185069 0 
v 0.0041804 -0.00166562 0 
v 0.00413844 -0.00280594 0 
v 0.0037246 -0.00252534 0 
v 0.0034385 -0.00362998 0 
v -0.00493413 -0.00080891 0 
v -0.00444072 -0.000728019 0 
v -0.00499267 0.000270695 0 
vn -0 -0 -1 
vn -0 -0 -1 
vn -0 -0 -1 
vn -0 -0 -1 
vn -0 -0 -1 
vn -0 -0 -1 
vn -0 -0 -1 
vn -0 -0 -1 
vn -0 -0 -1 
vn -0 -0 -1 
vn -0 -0 -1 
vn -0 -0 -1 
vn -0 -0 -1 
vn -0 -0 -1 
vn -0 -0 -1 
vn -0 -0 -1 
vn -0 -0 -1 
vn -0 -0 -1 
vn -0 -0 -1 
vn -0 -0 -1 
vn -0 -0 -1 
vn -0 -0 -1 
vn -0 -0 -1 
vn -0 -0 -1 
vn -0 -0 -1 
vn -0 -0 -1 
vn -0 -0 -1 
vn -0 -0 -1 
vn -0 -0 -1 
vn -0 -0 -1 
vn -0 -0 -1 
vn -0 -0 -1 
vn -0 -0 -1 
vn -0 -0 -1 
vn -0 -0 -1 
vn -0 -0 -1 
vn -0 -0 -1 
vn -0 -0 -1 
vn -0 -0 -1 
vn -0 -0 -1 
vn -0 -0 -1 
vn -0 -0 -1 
vn -0 -0 -1 
vn -0 -0 -1 
vn -0 -0 -1 
vn -0 -0 -1 
vn -0 -0 -1 
vn -0 -0 -1 
vn -0 -0 -1 
vn -0 -0 -1 
vn -0 -0 -1 
vn -0 -0 -1 
vn -0 -0 -1 
vn -0 -0 -1 
vn -0 -0 -1 
vn -0 -0 -1 
vn -0 -0 -1 
vn -0 -0 -1 
vn -0 -0 -1 
vn -0 -0 -1 
f 92//92 93//93 94//94 
f 95//95 96//96 93//93 
f 97//97 98//98 94//94 
f 93//93 92//92 95//95 
f 99//99 100//100 101//101 
f 99//99 102//102 103//103 
f 104//104 105//105 106//106 
f 107//107 108//108 105//105 
f 109//109 110//110 111//111 
f 97//97 112//112 110//110 
f 94//94 98//98 92//92 
f 95//95 113//113 114//114 
f 103//103 100//100 99//99 
f 102//102 115//115 116//116 
f 115//115 117//117 118//118 
f 117//117 119//119 120//120 
f 121//121 106//106 122//122 
f 105//105 104//104 107//107 
f 107//107 123//123 124//124 
f 123//123 125//125 126//126 
f 110//110 109//109 97//97 
f 114//114 96//96 95//95 
f 113//113 127//127 128//128 
f 127//127 129//129 130//130 
f 116//116 103//103 102//102 
f 120//120 118//118 117//117 
f 131//131 132//132 120//120 
f 131//131 133//133 134//134 
f 135//135 136//136 137//137 
f 135//135 138//138 122//122 
f 106//106 121//121 104//104 
f 126//126 124//124 123//123 
f 94//94 112//112 97//97 
f 130//130 128//128 127//127 
f 129//129 139//139 140//140 
f 139//139 141//141 142//142 
f 118//118 116//116 115//115 
f 134//134 132//132 131//131 
f 143//143 137//137 134//134 
f 122//122 136//136 135//135 
f 124//124 108//108 107//107 
f 144//144 145//145 126//126 
f 144//144 146//146 147//147 
f 146//146 148//148 111//111 
f 128//128 114//114 113//113 
f 142//142 140//140 139//139 
f 120//120 119//119 131//131 
f 137//137 143//143 135//135 
f 126//126 125//125 144//144 
f 111//111 147//147 146//146 
f 140//140 130//130 129//129 
f 141//141 149//149 150//150 
f 134//134 133//133 143//143 
f 147//147 145//145 144//144 
f 150//150 142//142 141//141 
f 149//149 151//151 101//101 
f 122//122 138//138 121//121 
f 101//101 150//150 149//149 
f 111//111 148//148 109//109 
f 101//101 151//151 99//99 
o mesh3
v -0.000967367 0.00439479 0 
v 0 0.0045 0 
v 0 0.0045 0.0340514 
v -0.0018895 0.00408409 0 
v -0.000967367 0.00439479 0.0340514 
v -0.00272328 0.00358242 0 
v -0.0018895 0.00408409 0.0340514 
v -0.00342973 0.00291324 0 
v -0.00272328 0.00358242 0.0340514 
v -0.0039758 0.00210784 0 
v -0.00342973 0.00291324 0.0340514 
v -0.00433597 0.00120388 0 
v -0.0039758 0.00210784 0.0340514 
v -0.0044934 0.000243625 0 
v -0.00433597 0.00120388 0.0340514 
v -0.00444072 -0.000728019 0 
v -0.0044934 0.000243625 0.0340514 
v -0.0041804 -0.00166562 0 
v -0.00444072 -0.000728019 0.0340514 
v -0.0037246 -0.00252534 0 
v -0.0041804 -0.00166562 0.0340514 
v -0.00309465 -0.00326698 0 
v -0.0037246 -0.00252534 0.0340514 
v -0.00231999 -0.00385586 0 
v -0.00309465 -0.00326698 0.0340514 
v -0.00143686 -0.00426444 0 
v -0.00231999 -0.00385586 0.0340514 
v -0.000486536 -0.00447362 0 
v -0.00143686 -0.00426444 0.0340514 
v 0.000486536 -0.00447362 0 
v 1.65327e-18 -0.0045 0 
v 5.51091e-19 -0.0045 0.0340514 
v -0.000486536 -0.00447362 0.0340514 
v 0.00143686 -0.00426444 0 
v 0.000486536 -0.00447362 0.0340514 
v 0.00231999 -0.00385586 0 
v 0.00143686 -0.00426444 0.0340514 
v 0.00309465 -0.00326698 0 
v 0.00231999 -0.00385586 0.0340514 
v 0.0037246 -0.00252534 0 
v 0.00309465 -0.00326698 0.0340514 
v 0.0041804 -0.00166562 0 
v 0.0037246 -0.00252534 0.0340514 
v 0.00444072 -0.000728019 0 
v 0.0041804 -0.00166562 0.0340514 
v 0.0044934 0.000243625 0 
v 0.00444072 -0.000728019 0.0340514 
v 0.00433597 0.00120388 0 
v 0.0044934 0.000243625 0.0340514 
v 0.0039758 0.00210784 0 
v 0.00433597 0.00120388 0.0340514 
v 0.00342973 0.00291324 0 
v 0.0039758 0.00210784 0.0340514 
v 0.00272328 0.00358242 0 
v 0.00342973 0.00291324 0.0340514 
v 0.0018895 0.00408409 0 
v 0.00272328 0.00358242 0.0340514 
v 0.000967367 0.00439479 0 
v 0.0018895 0.00408409 0.0340514 
v 0.000967367 0.00439479 0.0340514 
vn 0.21497 -0.976621 -0 
vn 2.44929e-16 -1 -0 
vn 2.44929e-16 -1 -0 
vn 0.419889 -0.907575 -0 
vn 0.21497 -0.976621 -0 
vn 0.605174 -0.796093 -0 
vn 0.419889 -0.907575 -0 
vn 0.762162 -0.647386 -0 
vn 0.605174 -0.796093 -0 
vn 0.883512 -0.468408 -0 
vn 0.762162 -0.647386 -0 
vn 0.96355 -0.267528 -0 
vn 0.883512 -0.468408 -0 
vn 0.998533 -0.0541389 -0 
vn 0.96355 -0.267528 -0 
vn 0.986827 0.161782 0 
vn 0.998533 -0.0541389 -0 
vn 0.928977 0.370138 0 
vn 0.986827 0.161782 0 
vn 0.827689 0.561187 0 
vn 0.928977 0.370138 0 
vn 0.687699 0.725995 0 
vn 0.827689 0.561187 0 
vn 0.515554 0.856857 0 
vn 0.687699 0.725995 0 
vn 0.319302 0.947653 0 
vn 0.515554 0.856857 0 
vn 0.108119 0.994138 0 
vn 0.319302 0.947653 0 
vn -0.108119 0.994138 -0 
vn -3.67394e-16 1 -0 
vn -3.67394e-16 1 -0 
vn 0.108119 0.994138 0 
vn -0.319302 0.947653 -0 
vn -0.108119 0.994138 -0 
vn -0.515554 0.856857 -0 
vn -0.319302 0.947653 -0 
vn -0.687699 0.725995 -0 
vn -0.515554 0.856857 -0 
vn -0.827689 0.561187 -0 
vn -0.687699 0.725995 -0 
vn -0.928977 0.370138 -0 
vn -0.827689 0.561187 -0 
vn -0.986827 0.161782 -0 
vn -0.928977 0.370138 -0 
vn -0.998533 -0.0541389 -0 
vn -0.986827 0.161782 -0 
vn -0.96355 -0.267528 -0 
vn -0.998533 -0.0541389 -0 
vn -0.883512 -0.468408 -0 
vn -0.96355 -0.267528 -0 
vn -0.762162 -0.647386 -0 
vn -0.883512 -0.468408 -0 
vn -0.605174 -0.796093 -0 
vn -0.762162 -0.647386 -0 
vn -0.419889 -0.907575 -0 
vn -0.605174 -0.796093 -0 
vn -0.21497 -0.976621 -0 
vn -0.419889 -0.907575 -0 
vn -0.21497 -0.976621 -0 
f 152//152 153//153 154//154 
f 155//155 152//152 156//156 
f 157//157 155//155 158//158 
f 159//159 157//157 160//160 
f 161//161 159//159 162//162 
f 163//163 161//161 164//164 
f 165//165 163//163 166//166 
f 167//167 165//165 168//168 
f 169//169 167//167 170//170 
f 171//171 169//169 172//172 
f 173//173 171//171 174//174 
f 175//175 173//173 176//176 
f 177//177 175//175 178//178 
f 179//179 177//177 180//180 
f 181//181 182//182 183//183 
f 184//184 183//183 182//182 
f 182//182 179//179 184//184 
f 185//185 181//181 186//186 
f 187//187 185//185 188//188 
f 189//189 187//187 190//190 
f 191//191 189//189 192//192 
f 193//193 191//191 194//194 
f 195//195 193//193 196//196 
f 197//197 195//195 198//198 
f 199//199 197//197 200//200 
f 201//201 199//199 202//202 
f 203//203 201//201 204//204 
f 205//205 203//203 206//206 
f 207//207 205//205 208//208 
f 209//209 207//207 210//210 
f 153//153 209//209 211//211 
f 211//211 154//154 153//153 
f 210//210 211//211 209//209 
f 208//208 210//210 207//207 
f 206//206 208//208 205//205 
f 204//204 206//206 203//203 
f 202//202 204//204 201//201 
f 200//200 202//202 199//199 
f 198//198 200//200 197//197 
f 196//196 198//198 195//195 
f 194//194 196//196 193//193 
f 192//192 194//194 191//191 
f 190//190 192//192 189//189 
f 188//188 190//190 187//187 
f 186//186 188//188 185//185 
f 183//183 186//186 181//181 
f 180//180 184//184 179//179 
f 178//178 180//180 177//177 
f 176//176 178//178 175//175 
f 174//174 176//176 173//173 
f 172//172 174//174 171//171 
f 170//170 172//172 169//169 
f 168//168 170//170 167//167 
f 166//166 168//168 165//165 
f 164//164 166//166 163//163 
f 162//162 164//164 161//161 
f 160//160 162//162 159//159 
f 158//158 160//160 157//157 
f 156//156 158//158 155//155 
f 154//154 156//156 152//152 
o mesh4
v 0 0 0.0340514 
v -0.000486536 -0.00447362 0.0340514 
v -0.00143686 -0.00426444 0.0340514 
v -0.00231999 -0.00385586 0.0340514 
v -0.00309465 -0.00326698 0.0340514 
v -0.0037246 -0.00252534 0.0340514 
v -0.0041804 -0.00166562 0.0340514 
v -0.00444072 -0.000728019 0.0340514 
v -0.0044934 0.000243625 0.0340514 
v -0.00433597 0.00120388 0.0340514 
v -0.0039758 0.00210784 0.0340514 
v -0.00342973 0.00291324 0.0340514 
v -0.00272328 0.00358242 0.0340514 
v -0.0018895 0.00408409 0.0340514 
v -0.000967367 0.00439479 0.0340514 
v 0 0.0045 0.0340514 
v 0.000967367 0.00439479 0.0340514 
v 0.0018895 0.00408409 0.0340514 
v 0.00272328 0.00358242 0.0340514 
v 0.00342973 0.00291324 0.0340514 
v 0.0039758 0.00210784 0.0340514 
v 0.00433597 0.00120388 0.0340514 
v 0.0044934 0.000243625 0.0340514 
v 0.00444072 -0.000728019 0.0340514 
v 0.0041804 -0.00166562 0.0340514 
v 0.0037246 -0.00252534 0.0340514 
v 0.00309465 -0.00326698 0.0340514 
v 0.00231999 -0.00385586 0.0340514 
v 0.00143686 -0.00426444 0.0340514 
v 0.000486536 -0.00447362 0.0340514 
v 5.51091e-19 -0.0045 0.0340514 
vn -0 -0 -1 
vn -0 -0 -1 
vn -0 -0 -1 
vn -0 -0 -1 
vn -0 -0 -1 
vn -0 -0 -1 
vn -0 -0 -1 
vn -0 -0 -1 
vn -0 -0 -1 
vn -0 -0 -1 
vn -0 -0 -1 
vn -0 -0 -1 
vn -0 -0 -1 
vn -0 -0 -1 
vn -0 -0 -1 
vn -0 -0 -1 
vn -0 -0 -1 
vn -0 -0 -1 
vn -0 -0 -1 
vn -0 -0 -1 
vn -0 -0 -1 
vn -0 -0 -1 
vn -0 -0 -1 
vn -0 -0 -1 
vn -0 -0 -1 
vn -0 -0 -1 
vn -0 -0 -1 
vn -0 -0 -1 
vn -0 -0 -1 
vn -0 -0 -1 
vn -0 -0 -1 
f 212//212 213//213 214//214 
f 214//214 215//215 212//212 
f 215//215 216//216 212//212 
f 216//216 217//217 212//212 
f 217//217 218//218 212//212 
f 218//218 219//219 212//212 
f 219//219 220//220 212//212 
f 220//220 221//221 212//212 
f 221//221 222//222 212//212 
f 222//222 223//223 212//212 
f 223//223 224//224 212//212 
f 224//224 225//225 212//212 
f 225//225 226//226 212//212 
f 226//226 227//227 212//212 
f 227//227 228//228 212//212 
f 228//228 229//229 212//212 
f 229//229 230//230 212//212 
f 230//230 231//231 212//212 
f 231//231 232//232 212//212 
f 232//232 233//233 212//212 
f 233//233 234//234 212//212 
f 234//234 235//235 212//212 
f 235//235 236//236 212//212 
f 236//236 237//237 212//212 
f 237//237 238//238 212//212 
f 238//238 239//239 212//212 
f 239//239 240//240 212//212 
f 240//240 241//241 212//212 
f 241//241 242//242 212//212 
f 242//242 213//213 212//212 
g Part 1
o mesh5
v 0 0 -0.00025 
v -0.000967367 -0.00439479 -0.00025 
v -0.0018895 -0.00408409 -0.00025 
v -0.00272328 -0.00358242 -0.00025 
v -0.00342973 -0.00291324 -0.00025 
v -0.0039758 -0.00210784 -0.00025 
v -0.00433597 -0.00120388 -0.00025 
v -0.0044934 -0.000243625 -0.00025 
v -0.00444072 0.000728019 -0.00025 
v -0.0041804 0.00166562 -0.00025 
v -0.0037246 0.00252534 -0.00025 
v -0.00309465 0.00326698 -0.00025 
v -0.00231999 0.00385586 -0.00025 
v -0.00143686 0.00426444 -0.00025 
v -0.000486536 0.00447362 -0.00025 
v 0.000486536 0.00447362 -0.00025 
v 0.00143686 0.00426444 -0.00025 
v 0.00231999 0.00385586 -0.00025 
v 0.00309465 0.00326698 -0.00025 
v 0.0037246 0.00252534 -0.00025 
v 0.0041804 0.00166562 -0.00025 
v 0.00444072 0.000728019 -0.00025 
v 0.0044934 -0.000243625 -0.00025 
v 0.00433597 -0.00120388 -0.00025 
v 0.0039758 -0.00210784 -0.00025 
v 0.00342973 -0.00291324 -0.00025 
v 0.00272328 -0.00358242 -0.00025 
v 0.0018895 -0.00408409 -0.00025 
v 0.000967367 -0.00439479 -0.00025 
v -1.10218e-18 -0.0045 -0.00025 
vn -0 -0 -1 
vn -0 -0 -1 
vn -0 -0 -1 
vn -0 -0 -1 
vn -0 -0 -1 
vn -0 -0 -1 
vn -0 -0 -1 
vn -0 -0 -1 
vn -0 -0 -1 
vn -0 -0 -1 
vn -0 -0 -1 
vn -0 -0 -1 
vn -0 -0 -1 
vn -0 -0 -1 
vn -0 -0 -1 
vn -0 -0 -1 
vn -0 -0 -1 
vn -0 -0 -1 
vn -0 -0 -1 
vn -0 -0 -1 
vn -0 -0 -1 
vn -0 -0 -1 
vn -0 -0 -1 
vn -0 -0 -1 
vn -0 -0 -1 
vn -0 -0 -1 
vn -0 -0 -1 
vn -0 -0 -1 
vn -0 -0 -1 
vn -0 -0 -1 
f 243//243 244//244 245//245 
f 245//245 246//246 243//243 
f 246//246 247//247 243//243 
f 247//247 248//248 243//243 
f 248//248 249//249 243//243 
f 249//249 250//250 243//243 
f 250//250 251//251 243//243 
f 251//251 252//252 243//243 
f 252//252 253//253 243//243 
f 253//253 254//254 243//243 
f 254//254 255//255 243//243 
f 255//255 256//256 243//243 
f 256//256 257//257 243//243 
f 257//257 258//258 243//243 
f 258//258 259//259 243//243 
f 259//259 260//260 243//243 
f 260//260 261//261 243//243 
f 261//261 262//262 243//243 
f 262//262 263//263 243//243 
f 263//263 264//264 243//243 
f 264//264 265//265 243//243 
f 265//265 266//266 243//243 
f 266//266 267//267 243//243 
f 267//267 268//268 243//243 
f 268//268 269//269 243//243 
f 269//269 270//270 243//243 
f 270//270 271//271 243//243 
f 271//271 272//272 243//243 
f 272//272 244//244 243//243 
o mesh6
v 0 -0.0045 0 
v -1.10218e-18 -0.0045 -0.00025 
v 0.000967367 -0.00439479 -0.00025 
v 0.000967367 -0.00439479 0 
v 0.0018895 -0.00408409 -0.00025 
v 0.0018895 -0.00408409 0 
v 0.00272328 -0.00358242 -0.00025 
v 0.00272328 -0.00358242 0 
v 0.00342973 -0.00291324 -0.00025 
v 0.00342973 -0.00291324 0 
v 0.0039758 -0.00210784 -0.00025 
v 0.0039758 -0.00210784 0 
v 0.00433597 -0.00120388 -0.00025 
v 0.00433597 -0.00120388 0 
v 0.0044934 -0.000243625 -0.00025 
v 0.0044934 -0.000243625 0 
v 0.00444072 0.000728019 -0.00025 
v 0.00444072 0.000728019 0 
v 0.0041804 0.00166562 -0.00025 
v 0.0041804 0.00166562 0 
v 0.0037246 0.00252534 -0.00025 
v 0.0037246 0.00252534 0 
v 0.00309465 0.00326698 -0.00025 
v 0.00309465 0.00326698 0 
v 0.00231999 0.00385586 -0.00025 
v 0.00231999 0.00385586 0 
v 0.00143686 0.00426444 -0.00025 
v 0.00143686 0.00426444 0 
v 0.000486536 0.00447362 -0.00025 
v 0.000486536 0.00447362 0 
v -0.000486536 0.00447362 -0.00025 
v -0.000486536 0.00447362 0 
v -0.00143686 0.00426444 -0.00025 
v -0.00143686 0.00426444 0 
v -0.00231999 0.00385586 -0.00025 
v -0.00231999 0.00385586 0 
v -0.00309465 0.00326698 -0.00025 
v -0.00309465 0.00326698 0 
v -0.0037246 0.00252534 -0.00025 
v -0.0037246 0.00252534 0 
v -0.0041804 0.00166562 -0.00025 
v -0.0041804 0.00166562 0 
v -0.00444072 0.000728019 -0.00025 
v -0.00444072 0.000728019 0 
v -0.0044934 -0.000243625 -0.00025 
v -0.0044934 -0.000243625 0 
v -0.00433597 -0.00120388 -0.00025 
v -0.00433597 -0.00120388 0 
v -0.0039758 -0.00210784 -0.00025 
v -0.0039758 -0.00210784 0 
v -0.00342973 -0.00291324 -0.00025 
v -0.00342973 -0.00291324 0 
v -0.00272328 -0.00358242 -0.00025 
v -0.00272328 -0.00358242 0 
v -0.0018895 -0.00408409 -0.00025 
v -0.0018895 -0.00408409 0 
v -0.000967367 -0.00439479 -0.00025 
v -0.000967367 -0.00439479 0 
vn 0 -1 0 
vn 0 -1 0 
vn 0.21497 -0.976621 0 
vn 0.21497 -0.976621 0 
vn 0.419889 -0.907575 0 
vn 0.419889 -0.907575 0 
vn 0.605174 -0.796093 0 
vn 0.605174 -0.796093 0 
vn 0.762162 -0.647386 0 
vn 0.762162 -0.647386 0 
vn 0.883512 -0.468408 0 
vn 0.883512 -0.468408 0 
vn 0.96355 -0.267528 0 
vn 0.96355 -0.267528 0 
vn 0.998533 -0.0541389 0 
vn 0.998533 -0.0541389 0 
vn 0.986827 0.161782 -0 
vn 0.986827 0.161782 -0 
vn 0.928977 0.370138 -0 
vn 0.928977 0.370138 -0 
vn 0.827689 0.561187 -0 
vn 0.827689 0.561187 -0 
vn 0.687699 0.725995 -0 
vn 0.687699 0.725995 -0 
vn 0.515554 0.856857 -0 
vn 0.515554 0.856857 -0 
vn 0.319302 0.947653 -0 
vn 0.319302 0.947653 -0 
vn 0.108119 0.994138 -0 
vn 0.108119 0.994138 -0 
vn -0.108119 0.994138 0 
vn -0.108119 0.994138 0 
vn -0.319302 0.947653 0 
vn -0.319302 0.947653 0 
vn -0.515554 0.856857 0 
vn -0.515554 0.856857 0 
vn -0.687699 0.725995 0 
vn -0.687699 0.725995 0 
vn -0.827689 0.561187 0 
vn -0.827689 0.561187 0 
vn -0.928977 0.370138 0 
vn -0.928977 0.370138 0 
vn -0.986827 0.161782 0 
vn -0.986827 0.161782 0 
vn -0.998533 -0.0541389 0 
vn -0.998533 -0.0541389 0 
vn -0.96355 -0.267528 0 
vn -0.96355 -0.267528 0 
vn -0.883512 -0.468408 0 
vn -0.883512 -0.468408 0 
vn -0.762162 -0.647386 0 
vn -0.762162 -0.647386 0 
vn -0.605174 -0.796093 0 
vn -0.605174 -0.796093 0 
vn -0.419889 -0.907575 0 
vn -0.419889 -0.907575 0 
vn -0.21497 -0.976621 0 
vn -0.21497 -0.976621 0 
f 273//273 274//274 275//275 
f 276//276 275//275 277//277 
f 278//278 277//277 279//279 
f 280//280 279//279 281//281 
f 282//282 281//281 283//283 
f 284//284 283//283 285//285 
f 286//286 285//285 287//287 
f 288//288 287//287 289//289 
f 290//290 289//289 291//291 
f 292//292 291//291 293//293 
f 294//294 293//293 295//295 
f 296//296 295//295 297//297 
f 298//298 297//297 299//299 
f 300//300 299//299 301//301 
f 302//302 301//301 303//303 
f 304//304 303//303 305//305 
f 306//306 305//305 307//307 
f 308//308 307//307 309//309 
f 310//310 309//309 311//311 
f 312//312 311//311 313//313 
f 314//314 313//313 315//315 
f 316//316 315//315 317//317 
f 318//318 317//317 319//319 
f 320//320 319//319 321//321 
f 322//322 321//321 323//323 
f 324//324 323//323 325//325 
f 326//326 325//325 327//327 
f 328//328 327//327 329//329 
f 330//330 329//329 274//274 
f 274//274 273//273 330//330 
f 329//329 330//330 328//328 
f 327//327 328//328 326//326 
f 325//325 326//326 324//324 
f 323//323 324//324 322//322 
f 321//321 322//322 320//320 
f 319//319 320//320 318//318 
f 317//317 318//318 316//316 
f 315//315 316//316 314//314 
f 313//313 314//314 312//312 
f 311//311 312//312 310//310 
f 309//309 310//310 308//308 
f 307//307 308//308 306//306 
f 305//305 306//306 304//304 
f 303//303 304//304 302//302 
f 301//301 302//302 300//300 
f 299//299 300//300 298//298 
f 297//297 298//298 296//296 
f 295//295 296//296 294//294 
f 293//293 294//294 292//292 
f 291//291 292//292 290//290 
f 289//289 290//290 288//288 
f 287//287 288//288 286//286 
f 285//285 286//286 284//284 
f 283//283 284//284 282//282 
f 281//281 282//282 280//280 
f 279//279 280//280 278//278 
f 277//277 278//278 276//276 
f 275//275 276//276 273//273 
o mesh7
v 0 0 0 
v 0.000967367 -0.00439479 0 
v 0.0018895 -0.00408409 0 
v 0.00272328 -0.00358242 0 
v 0.00342973 -0.00291324 0 
v 0.0039758 -0.00210784 0 
v 0.00433597 -0.00120388 0 
v 0.0044934 -0.000243625 0 
v 0.00444072 0.000728019 0 
v 0.0041804 0.00166562 0 
v 0.0037246 0.00252534 0 
v 0.00309465 0.00326698 0 
v 0.00231999 0.00385586 0 
v 0.00143686 0.00426444 0 
v 0.000486536 0.00447362 0 
v -0.000486536 0.00447362 0 
v -0.00143686 0.00426444 0 
v -0.00231999 0.00385586 0 
v -0.00309465 0.00326698 0 
v -0.0037246 0.00252534 0 
v -0.0041804 0.00166562 0 
v -0.00444072 0.000728019 0 
v -0.0044934 -0.000243625 0 
v -0.00433597 -0.00120388 0 
v -0.0039758 -0.00210784 0 
v -0.00342973 -0.00291324 0 
v -0.00272328 -0.00358242 0 
v -0.0018895 -0.00408409 0 
v -0.000967367 -0.00439479 0 
v 0 -0.0045 0 
vn 0 0 1 
vn 0 0 1 
vn 0 0 1 
vn 0 0 1 
vn 0 0 1 
vn 0 0 1 
vn 0 0 1 
vn 0 0 1 
vn 0 0 1 
vn 0 0 1 
vn 0 0 1 
vn 0 0 1 
vn 0 0 1 
vn 0 0 1 
vn 0 0 1 
vn 0 0 1 
vn 0 0 1 
vn 0 0 1 
vn 0 0 1 
vn 0 0 1 
vn 0 0 1 
vn 0 0 1 
vn 0 0 1 
vn 0 0 1 
vn 0 0 1 
vn 0 0 1 
vn 0 0 1 
vn 0 0 1 
vn 0 0 1 
vn 0 0 1 
f 331//331 332//332 333//333 
f 333//333 334//334 331//331 
f 334//334 335//335 331//331 
f 335//335 336//336 331//331 
f 336//336 337//337 331//331 
f 337//337 338//338 331//331 
f 338//338 339//339 331//331 
f 339//339 340//340 331//331 
f 340//340 341//341 331//331 
f 341//341 342//342 331//331 
f 342//342 343//343 331//331 
f 343//343 344//344 331//331 
f 344//344 345//345 331//331 
f 345//345 346//346 331//331 
f 346//346 347//347 331//331 
f 347//347 348//348 331//331 
f 348//348 349//349 331//331 
f 349//349 350//350 331//331 
f 350//350 351//351 331//331 
f 351//351 352//352 331//331 
f 352//352 353//353 331//331 
f 353//353 354//354 331//331 
f 354//354 355//355 331//331 
f 355//355 356//356 331//331 
f 356//356 357//357 331//331 
f 357//357 358//358 331//331 
f 358//358 359//359 331//331 
f 359//359 360//360 331//331 
f 360//360 332//332 331//331 
